…
```
## # A tibble: 1 x 13
##   record_id month   day  year plot_id species_id   sex hindfoot_length weight
##       <int> <int> <int> <int>   <int>      <int> <int>           <int>  <int>
## 1         0     0     0     0       0          0  1748            3348   2503
## # ... with 4 more variables: genus <int>, species <int>, taxa <int>,
## #   plot_type <int>
```

```r
deserts
```

```
## # A tibble: 34,786 x 13
##    record_id month   day  year plot_id species_id sex   hindfoot_length weight
##        <dbl> <dbl> <dbl> <dbl>   <dbl> <chr>      <chr>           <dbl>  <dbl>
##  1         1     7    16  1977       2 NL         M                  32     NA
##  2         2     7    16  1977       3 NL         M                  33     NA
##  3         3     7    16  1977       2 DM         F                  37     NA
##  4         4     7    16  1977       7 DM         M                  36     NA
##  5         5     7    16  1977       3 DM         M                  35     NA
##  6         6     7    16  1977       1 PF         M                  14     NA
##  7         7     7    16  1977       2 PE         F                  NA     NA
##  8         8     7    16  1977       1 DM         M                  37     NA
##  9         9     7    16  1977       1 DM         F                  34     NA
## 10        10     7    16  1977       6 PF         F                  20     NA
## # ... with 34,776 more rows, and 4 more variables: genus <chr>, species <chr>,
## #   taxa <chr>, plot_type <chr>
```
*This data is not tidy.* 
2. How many genera and species are represented in the data? What are the total number of observations? Which species is most/ least frequently sampled in the study?

```r
deserts %>% 
  count(genus, species, sort=T) 
```

```
## # A tibble: 48 x 3
##    genus           species          n
##    <chr>           <chr>        <int>
##  1 Dipodomys       merriami     10596
##  2 Chaetodipus     penicillatus  3123
##  3 Dipodomys       ordii         3027
##  4 Chaetodipus     baileyi       2891
##  5 Reithrodontomys megalotis     2609
##  6 Dipodomys       spectabilis   2504
##  7 Onychomys       torridus      2249
##  8 Perognathus     flavus        1597
##  9 Peromyscus      eremicus      1299
## 10 Neotoma         albigula      1252
## # ... with 38 more rows
```
…
7. [Dipodomys merriami](https://en.wikipedia.org/wiki/Merriam's_kangaroo_rat) is the most frequently sampled animal in the study. How have the number of observations of this species changed over the years included in the study?

```r
deserts %>% 
  filter(genus=="Dipodomys", species=="merriami") %>% 
  count(genus, species, year) 
```

```
## # A tibble: 26 x 4
##    genus     species   year     n
##    <chr>     <chr>    <dbl> <int>
##  1 Dipodomys merriami  1977   264
##  2 Dipodomys merriami  1978   389
##  3 Dipodomys merriami  1979   209
##  4 Dipodomys merriami  1980   493
##  5 Dipodomys merriami  1981   559
##  6 Dipodomys merriami  1982   609
##  7 Dipodomys merriami  1983   528
##  8 Dipodomys merriami  1984   396
##  9 Dipodomys merriami  1985   667
## 10 Dipodomys merriami  1986   406
## # ... with 16 more rows
```
…
```r
deserts %>% 
    filter(species=="albigula"|species=="spectabilis") %>% 
  mutate(ratio_w_hl=weight/hindfoot_length)
```

```
## # A tibble: 3,756 x 14
##    record_id month   day  year plot_id species_id sex   hindfoot_length weight
##        <dbl> <dbl> <dbl> <dbl>   <dbl> <chr>      <chr>           <dbl>  <dbl>
##  1         1     7    16  1977       2 NL         M                  32     NA
##  2         2     7    16  1977       3 NL         M                  33     NA
##  3        11     7    16  1977       5 DS         F                  53     NA
##  4        17     7    16  1977       3 DS         F                  48     NA
##  5        20     7    17  1977      11 DS         F                  48     NA
##  6        22     7    17  1977      15 NL         F                  31     NA
##  7        30     7    17  1977      10 DS         F                  52     NA
##  8        38     7    17  1977      17 NL         M                  33     NA
##  9        42     7    18  1977      18 DS         F                  46     NA
## 10        58     7    18  1977      12 DS         M                  45     NA
## # ... with 3,746 more rows, and 5 more variables: genus <chr>, species <chr>,
## #   taxa <chr>, plot_type <chr>, ratio_w_hl <dbl>
```
…
