…
```r
gapminder %>% 
  group_by(continent, year) %>% 
    summarise(min_lifeExp=min(lifeExp),
            max_lifeExp=max(lifeExp),
            median_lifeExp=median(lifeExp))
```

```
## `summarise()` has grouped output by 'continent'. You can override using the `.groups` argument.
```

```
## # A tibble: 60 x 5
## # Groups:   continent [5]
##    continent  year min_lifeExp max_lifeExp median_lifeExp
##    <fct>     <int>       <dbl>       <dbl>          <dbl>
##  1 Africa     1952        30          52.7           38.8
##  2 Africa     1957        31.6        58.1           40.6
##  3 Africa     1962        32.8        60.2           42.6
##  4 Africa     1967        34.1        61.6           44.7
##  5 Africa     1972        35.4        64.3           47.0
##  6 Africa     1977        36.8        67.1           49.3
##  7 Africa     1982        38.4        69.9           50.8
##  8 Africa     1987        39.9        71.9           51.6
##  9 Africa     1992        23.6        73.6           52.4
## 10 Africa     1997        36.1        74.8           52.8
## # ... with 50 more rows
```
…
**5. How has life expectancy changed between 1952-2007 for each continent?**

```r
gapminder %>% 
  group_by(continent, year) %>% 
  filter(between(year, 1952,2007)) %>% 
    summarise(mean_lifeExp=mean(lifeExp))
```

```
## `summarise()` has grouped output by 'continent'. You can override using the `.groups` argument.
```

```
## # A tibble: 60 x 3
## # Groups:   continent [5]
##    continent  year mean_lifeExp
##    <fct>     <int>        <dbl>
##  1 Africa     1952         39.1
##  2 Africa     1957         41.3
##  3 Africa     1962         43.3
##  4 Africa     1967         45.3
##  5 Africa     1972         47.5
##  6 Africa     1977         49.6
##  7 Africa     1982         51.6
##  8 Africa     1987         53.3
##  9 Africa     1992         53.6
## 10 Africa     1997         53.6
## # ... with 50 more rows
```
…
**6. We are interested in the relationship between per capita GDP and life expectancy; i.e. does having more money help you live longer?**

```r
gapminder %>% 
  select(gdpPercap, lifeExp) %>% 
  arrange(gdpPercap)
```

```
## # A tibble: 1,704 x 2
##    gdpPercap lifeExp
##        <dbl>   <dbl>
##  1      241.    45.0
##  2      278.    46.5
##  3      299.    42.1
##  4      300.    32.5
##  5      312.    42.6
##  6      329.    35.9
##  7      331     36.3
##  8      336.    45.0
##  9      339.    39.0
## 10      344.    38.0
## # ... with 1,694 more rows
```
…
**7. Which countries have had the largest population growth since 1952?**

```r
gapminder %>% 
  select(year, pop, country) %>% 
  filter(between(year,1952,2007)) %>% 
  group_by(country) %>% 
  summarise(total_pop_growth=sum(pop)) %>% 
  arrange(desc(total_pop_growth))
```

```
## # A tibble: 142 x 2
##    country       total_pop_growth
##    <fct>                    <dbl>
##  1 China              11497920623
##  2 India               8413568878
##  3 United States       2738534790
##  4 Indonesia           1779874000
##  5 Brazil              1467745520
##  6 Japan               1341105696
##  7 Pakistan            1124200629
##  8 Bangladesh          1089064744
##  9 Germany              930564520
## 10 Nigeria              884496214
## # ... with 132 more rows
```
…
